[
    {
        "type": "header",
        "version": "4.8.5",
        "comment": "Export to JSON plugin for PHPMyAdmin"
    },
    {
        "type": "database",
        "name": "simnew"
    },
    {
        "type": "table",
        "name": "barang",
        "database": "simnew",
        "data": [
            {
                "id_barang": "15",
                "kode_barang": "346326",
                "nama_barang": "Buku tulis",
                "harga_beli": "2000",
                "harga_jual": "3000",
                "keuntungan": "1000",
                "stok": "6",
                "id_kategori": "12",
                "id_satuan": "3",
                "created_at": "2020-05-06 17:19:14",
                "update_at": null
            },
            {
                "id_barang": "16",
                "kode_barang": "312435346y",
                "nama_barang": "Micin AJINOMOTO",
                "harga_beli": "500",
                "harga_jual": "1000",
                "keuntungan": "500",
                "stok": "5",
                "id_kategori": "12",
                "id_satuan": "2",
                "created_at": "2020-05-06 17:30:59",
                "update_at": null
            },
            {
                "id_barang": "17",
                "kode_barang": "21",
                "nama_barang": "13321213",
                "harga_beli": "1500",
                "harga_jual": "321213",
                "keuntungan": "319713",
                "stok": "5",
                "id_kategori": "12",
                "id_satuan": "3",
                "created_at": "2020-05-06 19:30:12",
                "update_at": null
            }
        ]
    },
    {
        "type": "table",
        "name": "barang_keluar",
        "database": "simnew",
        "data": []
    },
    {
        "type": "table",
        "name": "barang_masuk",
        "database": "simnew",
        "data": []
    },
    {
        "type": "table",
        "name": "kategori",
        "database": "simnew",
        "data": [
            {
                "id_kategori": "12",
                "nama_kategori": "Minuman"
            },
            {
                "id_kategori": "13",
                "nama_kategori": "Snack"
            },
            {
                "id_kategori": "14",
                "nama_kategori": "ATK"
            },
            {
                "id_kategori": "20",
                "nama_kategori": "souvenir"
            },
            {
                "id_kategori": "21",
                "nama_kategori": "Sembako"
            }
        ]
    },
    {
        "type": "table",
        "name": "modal",
        "database": "simnew",
        "data": [
            {
                "id_modal": "67",
                "modal": "10000",
                "created_at": "2020-09-11 00:27:12",
                "update_at": "2020-09-12 00:00:00"
            },
            {
                "id_modal": "68",
                "modal": "2147483647",
                "created_at": "2020-09-12 07:19:57",
                "update_at": "2020-09-12 00:00:00"
            },
            {
                "id_modal": "69",
                "modal": "1000000",
                "created_at": "2020-09-16 06:25:17",
                "update_at": "2020-09-15 00:00:00"
            }
        ]
    },
    {
        "type": "table",
        "name": "satuan",
        "database": "simnew",
        "data": [
            {
                "id_satuan": "2",
                "nama_satuan": "Pack"
            },
            {
                "id_satuan": "3",
                "nama_satuan": "Biji"
            },
            {
                "id_satuan": "4",
                "nama_satuan": "Liter"
            }
        ]
    },
    {
        "type": "table",
        "name": "surat",
        "database": "simnew",
        "data": [
            {
                "id_surat": "26",
                "nomor_surat": "asdass",
                "instansi": "sdasd",
                "topik": "asdasdasd",
                "type": "masuk",
                "tanggal_keluar": null,
                "tanggal_masuk": "2020-07-30",
                "scan": "3.JPG"
            },
            {
                "id_surat": "28",
                "nomor_surat": "123123123ssss",
                "instansi": "1231231",
                "topik": "123123123",
                "type": "keluar",
                "tanggal_keluar": "2020-07-31",
                "tanggal_masuk": "0000-00-00",
                "scan": "111sss.png"
            },
            {
                "id_surat": "30",
                "nomor_surat": "34354",
                "instansi": "345345",
                "topik": "345345",
                "type": "keluar",
                "tanggal_keluar": "2020-07-24",
                "tanggal_masuk": "0000-00-00",
                "scan": "20191021_163939.jpg"
            }
        ]
    },
    {
        "type": "table",
        "name": "user",
        "database": "simnew",
        "data": [
            {
                "id_user": "56",
                "kd_user": "SKPM-2020020001",
                "nama_user": "admin",
                "username": "admin",
                "password": "$2y$10$mqXSKZbnsTvOPoJeQKGz.O7f7F4DPCTsypGXLwfBmygsZTq5lIvjy",
                "alamat": "KOPMA-UMM",
                "group_user": "Administrator",
                "created_at": "2020-05-02 14:54:04",
                "update_at": null
            },
            {
                "id_user": "79",
                "kd_user": "SKPM-2020020010",
                "nama_user": "Ida firdiana",
                "username": "admin",
                "password": "$2y$10$4g9TnpBiGXVQbSn4tNsHgu6eHjwcVaRxNElYa85yFvAaJBJST4sf2",
                "alamat": "Jl tirto utomo no 36",
                "group_user": "Administrator",
                "created_at": "2020-05-02 19:07:36",
                "update_at": null
            },
            {
                "id_user": "284",
                "kd_user": "SKPM-2020090011",
                "nama_user": "user",
                "username": "user",
                "password": "$2y$10$psjXv.Jz\/WJ5.D58Q4CZ0uRS4y5CyIHKohpwIxPQTx8d1olP\/h3vm",
                "alamat": "adsasasd",
                "group_user": "User",
                "created_at": "2020-05-09 14:20:18",
                "update_at": null
            },
            {
                "id_user": "289",
                "kd_user": "SKPM-2020130016",
                "nama_user": "tes",
                "username": "tes",
                "password": "$2y$10$qkCtdqwLfuY9AlabRqb37e3HvHM2Zq12OcWy9rfRr39NoHPA.tsqS",
                "alamat": "tes",
                "group_user": "Administrator",
                "created_at": "2020-06-13 17:36:08",
                "update_at": null
            },
            {
                "id_user": "292",
                "kd_user": "SKPM-2020040017",
                "nama_user": "asdkaksd",
                "username": "askdkasd",
                "password": "$2y$10$5qHBXfPMpk.tJRChjRjXIuBfD4OeJMyZKjl78a6O8.67vLne678jW",
                "alamat": "aksdkaskd",
                "group_user": "Administrator",
                "created_at": "2020-07-04 18:45:36",
                "update_at": null
            }
        ]
    }
]